[
    {
        "test-name": "fapi1-advanced-final-discovery-end-point-verification",
        "variant": {
                "fapi_profile": "openbanking_uk"
        },
        "configuration-filename": "authlete-*.json",
        "current-block": "",
        "condition": "CheckJwksUriIsHostedOnOpenBankingDirectory",
        "expected-result": "warning",
        "comment": "this occurs on everything except production bank deployments"
    },
    {
        "test-name": "fapi1-advanced-final-attempt-reuse-authorisation-code-after-one-second",
        "variant": "*",
        "configuration-filename": "authlete*.json",
        "current-block": "Attempting reuse of authorisation code & testing if access token is revoked",
        "condition": "CallProtectedResourceWithBearerTokenExpectingError",
        "expected-result": "warning",
        "comment": "known case where authlete doesn't implement a 'should'"
    },
    {
        "test-name": "fapi1-advanced-final-refresh-token",
        "variant": {
                "client_auth_type": "private_key_jwt",
                "fapi_profile": "openbanking_uk",
                "fapi_response_mode": "plain_response"
        },
        "configuration-filename": "authlete-fapi-rw-id2-ob-privatekey.json",
        "current-block": "Second client: Check for refresh token",
        "condition": "FAPIEnsureServerConfigurationDoesNotSupportRefreshToken",
        "expected-result": "warning",
        "comment": "The second client in this configuration does not get issued a refresh token, which is now a warning"
    },
    {
        "test-name": "fapi1-advanced-final",
        "variant": "*",
        "configuration-filename": "authlete-fapi-brazil-*.json",
        "current-block": "",
        "condition": "FAPIBrazilMustTestUsingPayments",
        "expected-result": "warning",
        "comment": "The Authlete config we currently have is only good for accounts access"
    },
    {
        "test-name": "fapi1-advanced-final-brazildcr-happy-flow",
        "variant": "*",
        "configuration-filename": "authlete-fapi-brazil-dcr.json",
        "current-block": "",
        "condition": "FAPIBrazilMustTestUsingPayments",
        "expected-result": "warning",
        "comment": "The Authlete config we currently have is only good for accounts access"
    },
    {
        "test-name": "oidcc-codereuse-30seconds",
        "variant": "*",
        "configuration-filename": "authlete-*.json",
        "current-block": "Testing if access token was revoked after the authorization code was reused",
        "condition": "CallProtectedResourceWithBearerTokenExpectingError",
        "expected-result": "warning",
        "comment": "known case where authlete doesn't implement a 'should'"
    },
    {
        "test-name": "oidcc-server-rotate-keys",
        "variant": "*",
        "configuration-filename": "authlete-*.json",
        "current-block": "",
        "condition": "VerifyNewJwksHasNewSigningKey",
        "expected-result": "failure",
        "comment": "CI can't trigger key rotation"
    },
    {
        "test-name": "oidcc-userinfo-post-body",
        "variant": "*",
        "configuration-filename": "authlete-*.json",
        "current-block": "",
        "condition": "UserInfoEndpointWithAccessTokenInBodyNotSupported",
        "expected-result": "warning",
        "comment": "Authlete doesn't support POST with access token in body, which is not required"
    },
    {
        "test-name": "fapi1-advanced-final-ensure-request-object-with-multiple-aud-succeeds",
        "variant": "*",
        "configuration-filename": "../conformance-suite/scripts/test-configs-rp-against-op/fapi-op-test-config.json",
        "current-block": "Verify token endpoint response",
        "condition": "ExtractExpiresInFromTokenEndpointResponse",
        "expected-result": "warning",
        "comment": "RP tests currently don't return expires_in; it's optional, albeit recommended, in the specs"
    },
    {
        "test-name": "fapi1-advanced-final-ensure-request-object-with-multiple-aud-succeeds",
        "variant": "*",
        "configuration-filename": "../conformance-suite/scripts/test-configs-rp-against-op/fapi-brazil-op-test-config-accounts.json",
        "current-block": "Use client_credentials grant to obtain Brazil consent",
        "condition": "ExtractExpiresInFromTokenEndpointResponse",
        "expected-result": "warning",
        "comment": "RP tests currently don't return expires_in; it's optional, albeit recommended, in the specs"
    },
    {
        "test-name": "fapi1-advanced-final-ensure-request-object-with-multiple-aud-succeeds",
        "variant": "*",
        "configuration-filename": "../conformance-suite/scripts/test-configs-rp-against-op/fapi-brazil-op-test-config-accounts.json",
        "current-block": "Verify token endpoint response",
        "condition": "ExtractExpiresInFromTokenEndpointResponse",
        "expected-result": "warning",
        "comment": "RP tests currently don't return expires_in; it's optional, albeit recommended, in the specs"
    },
    {
        "test-name": "fapi1-advanced-final-ensure-request-object-with-multiple-aud-succeeds",
        "variant": {
            "fapi_response_mode": "plain_response"
        },
        "configuration-filename": "../conformance-suite/scripts/test-configs-rp-against-op/fapi-op-test-config.json",
        "current-block": "Verify authorization endpoint response",
        "condition": "ValidateIdTokenACRClaimAgainstRequest",
        "expected-result": "failure",
        "comment": "RP tests currently don't return requested acr values"
    },
    {
        "test-name": "fapi1-advanced-final-ensure-request-object-with-multiple-aud-succeeds",
        "variant": "*",
        "configuration-filename": "../conformance-suite/scripts/test-configs-rp-against-op/fapi-op-test-config.json",
        "current-block": "Verify token endpoint response",
        "condition": "ValidateIdTokenACRClaimAgainstRequest",
        "expected-result": "failure",
        "comment": "RP tests currently don't return requested acr values"
    },
    {
        "test-name": "fapi1-advanced-final-brazildcr-happy-flow",
        "variant": "*",
        "configuration-filename": "../conformance-suite/scripts/test-configs-rp-against-op/fapi-brazil-op-test-config-accounts-dcr.json",
        "current-block": "",
        "condition": "FAPIBrazilMustTestUsingPayments",
        "expected-result": "warning",
        "comment": "This config uses accounts deliberately; the issue is only a warning"
    },
    {
        "test-name": "fapi1-advanced-final-brazildcr-happy-flow",
        "variant": "*",
        "configuration-filename": "../conformance-suite/scripts/test-configs-rp-against-op/fapi-brazil-*.json",
        "current-block": "Use client_credentials grant to obtain Brazil consent",
        "condition": "ExtractExpiresInFromTokenEndpointResponse",
        "expected-result": "warning",
        "comment": "RP tests currently don't return expires_in; it's optional, albeit recommended, in the specs"
    },
    {
        "test-name": "fapi1-advanced-final-brazildcr-happy-flow",
        "variant": "*",
        "configuration-filename": "../conformance-suite/scripts/test-configs-rp-against-op/fapi-brazil-*.json",
        "current-block": "Verify token endpoint response",
        "condition": "ExtractExpiresInFromTokenEndpointResponse",
        "expected-result": "warning",
        "comment": "RP tests currently don't return expires_in; it's optional, albeit recommended, in the specs"
    },
    {
        "test-name": "fapi1-advanced-final-brazildcr-happy-flow-variant",
        "variant": "*",
        "configuration-filename": "authlete-fapi-brazil-dcr.json",
        "current-block": "",
        "condition": "CheckScopesFromDynamicRegistrationEndpointDoNotExceedRequestedScopes",
        "expected-result": "failure",
        "comment": "Authlete currently seems to not be returning 'scope'"
    },
    {
        "test-name": "fapi1-advanced-final-brazildcr-happy-flow-variant-2",
        "variant": "*",
        "configuration-filename": "authlete-fapi-brazil-dcr.json",
        "current-block": "",
        "condition": "CheckScopesFromDynamicRegistrationEndpointDoNotExceedRequestedScopes",
        "expected-result": "failure",
        "comment": "Authlete currently seems to not be returning 'scope'"
    },
    {
        "test-name": "fapi1-advanced-final-brazil-dcr-no-software-statement",
        "variant": "*",
        "configuration-filename": "authlete-fapi-brazil-dcr.json",
        "current-block": "Perform Dynamic Client Registration",
        "condition": "EnsureHttpStatusCodeIs400",
        "expected-result": "failure",
        "comment": "Authlete currently seems to not be checking this"
    },
    {
        "test-name": "fapi1-advanced-final-brazil-dcr-no-software-statement",
        "variant": "*",
        "configuration-filename": "authlete-fapi-brazil-dcr.json",
        "current-block": "Perform Dynamic Client Registration",
        "condition": "CheckDynamicRegistrationEndpointReturnedError",
        "expected-result": "failure",
        "comment": "Authlete currently seems to not be checking this"
    },
    {
        "test-name": "fapi1-advanced-final-brazil-dcr-no-mtls",
        "variant": "*",
        "configuration-filename": "authlete-fapi-brazil-dcr.json",
        "current-block": "Call client configuration endpoint with no/bad certificate",
        "condition": "CheckNoClientIdFromClientConfigurationEndpoint",
        "expected-result": "failure",
        "comment": "Authlete currently seems to not be checking this"
    },
    {
        "test-name": "fapi1-advanced-final-brazil-dcr-no-mtls",
        "variant": "*",
        "configuration-filename": "authlete-fapi-brazil-dcr.json",
        "current-block": "Call client configuration endpoint with no/bad certificate",
        "condition": "UnregisterDynamicallyRegisteredClientExpectingFailure",
        "expected-result": "failure"
    },
    {
        "test-name": "fapi1-advanced-final-brazildcr-update-client-config",
        "variant": "*",
        "configuration-filename": "authlete-fapi-brazil-dcr.json",
        "current-block": "Try to change redirect uri using bad MTLS certificate",
        "condition": "EnsureHttpStatusCodeIs401",
        "expected-result": "failure"
    },
    {
        "test-name": "fapi1-advanced-final-brazildcr-update-client-config",
        "variant": "*",
        "configuration-filename": "authlete-fapi-brazil-dcr.json",
        "current-block": "Try to change redirect uri using bad MTLS certificate",
        "condition": "CheckNoClientIdFromClientConfigurationEndpoint",
        "expected-result": "failure"
    },
    {
        "test-name": "fapi1-advanced-final-brazildcr-update-client-config",
        "variant": "*",
        "configuration-filename": "authlete-fapi-brazil-dcr.json",
        "current-block": "Try to change redirect uri using no MTLS certificate",
        "condition": "EnsureHttpStatusCodeIs401",
        "expected-result": "failure"
    },
    {
        "test-name": "fapi1-advanced-final-brazildcr-update-client-config",
        "variant": "*",
        "configuration-filename": "authlete-fapi-brazil-dcr.json",
        "current-block": "Calling PUT on configuration endpoint with no software statement assertion expecting failure",
        "condition": "EnsureHttpStatusCodeIs400",
        "expected-result": "failure"
    },
    {
        "test-name": "fapi1-advanced-final-brazildcr-update-client-config",
        "variant": "*",
        "configuration-filename": "authlete-fapi-brazil-dcr.json",
        "current-block": "Retrieve client configuration",
        "condition": "CheckRedirectUrisFromClientConfigurationEndpoint",
        "expected-result": "failure"
    },
    {
        "test-name": "fapi1-advanced-final-brazil-dcr-bad-mtls",
        "variant": "*",
        "configuration-filename": "authlete-fapi-brazil-dcr.json",
        "current-block": "Call client configuration endpoint with no/bad certificate",
        "condition": "CheckNoClientIdFromClientConfigurationEndpoint",
        "expected-result": "failure"
    },
    {
        "test-name": "fapi1-advanced-final-brazil-dcr-bad-mtls",
        "variant": "*",
        "configuration-filename": "authlete-fapi-brazil-dcr.json",
        "current-block": "Call client configuration endpoint with no/bad certificate",
        "condition": "UnregisterDynamicallyRegisteredClientExpectingFailure",
        "expected-result": "failure"
    },
    {
        "test-name": "fapi1-advanced-final-brazil-dcr-bad-mtls",
        "variant": "*",
        "configuration-filename": "authlete-fapi-brazil-dcr.json",
        "current-block": "Call client configuration endpoint with no/bad certificate",
        "condition": "CheckDynamicRegistrationEndpointReturnedError",
        "expected-result": "failure"
    },
    {
        "test-name": "fapi1-advanced-final-brazil-dcr-no-mtls",
        "variant": "*",
        "configuration-filename": "authlete-fapi-brazil-dcr.json",
        "current-block": "Call client configuration endpoint with no/bad certificate",
        "condition": "EnsureHttpStatusCodeIs400or401",
        "expected-result": "failure"
    },
    {
        "test-name": "fapi1-advanced-final-brazil-dcr-no-mtls",
        "variant": "*",
        "configuration-filename": "authlete-fapi-brazil-dcr.json",
        "current-block": "Call client configuration endpoint with no/bad certificate",
        "condition": "CheckDynamicRegistrationEndpointReturnedError",
        "expected-result": "failure"
    },
    {
        "test-name": "fapi1-advanced-final-brazil-dcr-no-mtls",
        "variant": "*",
        "configuration-filename": "authlete-fapi-brazil-dcr.json",
        "current-block": "Deregister client",
        "condition": "UnregisterDynamicallyRegisteredClient",
        "expected-result": "failure"
    },
    {
        "test-name": "fapi1-advanced-final-brazil-dcr-bad-mtls",
        "variant": "*",
        "configuration-filename": "authlete-fapi-brazil-dcr.json",
        "current-block": "Call dynamic client registration endpoint with no/bad certificate",
        "condition": "CheckDynamicRegistrationEndpointReturnedError",
        "expected-result": "failure"
    },
    {
        "test-name": "fapi1-advanced-final-brazil-dcr-bad-mtls",
        "variant": "*",
        "configuration-filename": "authlete-fapi-brazil-dcr.json",
        "current-block": "Call dynamic client registration endpoint with no/bad certificate",
        "condition": "EnsureHttpStatusCodeIs400or401",
        "expected-result": "failure"
    },
    {
        "test-name": "fapi1-advanced-final-brazil-dcr-bad-mtls",
        "variant": "*",
        "configuration-filename": "authlete-fapi-brazil-dcr.json",
        "current-block": "Call dynamic client registration endpoint with no/bad certificate",
        "condition": "CheckNoClientIdFromDynamicRegistrationEndpoint",
        "expected-result": "failure"
    },
    {
        "test-name": "fapi1-advanced-final-brazil-dcr-bad-mtls",
        "variant": "*",
        "configuration-filename": "authlete-fapi-brazil-dcr.json",
        "current-block": "Call client configuration endpoint with no/bad certificate",
        "condition": "EnsureHttpStatusCodeIs400or401",
        "expected-result": "failure"
    },
    {
        "test-name": "fapi1-advanced-final-brazil-dcr-bad-mtls",
        "variant": "*",
        "configuration-filename": "authlete-fapi-brazil-dcr.json",
        "current-block": "Deregister client",
        "condition": "UnregisterDynamicallyRegisteredClient",
        "expected-result": "failure"
    }
]
